<svg xmlns="http://www.w3.org/2000/svg" width="61.719" height="70.5" viewBox="0 0 61.719 70.5">
  <defs>
    <style>
      .cls-1 {
        fill: #fff;
        stroke: #fff;
        stroke-width: 2px;
        fill-rule: evenodd;
      }
    </style>
  </defs>
  <path id="Forme_2" data-name="Forme 2" class="cls-1" d="M71.944,51.6L48.135,77.25,12.219,43.918,44.87,8.735,66.86,29.142,65.5,30.608,44.976,11.561l-10.2,10.995L53.1,39.562l-1.36,1.466L33.412,24.022,15.045,43.813,48.03,74.424,70.478,50.235,71.944,51.6" transform="translate(-11.219 -7.75)"/>
</svg>
